INDEX VERSION 1.130+C:\Projects\springboot\SpringBoot\.metadata\.plugins\org.eclipse.jdt.core
674573568.index
411227453.index
3470632047.index
753350912.index
637772862.index
1871564248.index
1542080790.index
521249482.index
2994959823.index
895354549.index
4021827598.index
2345081323.index
1847013800.index
2516490047.index
3953809652.index
1158960687.index
2220456953.index
772243840.index
2023249904.index
3684254619.index
1510874285.index
3702098218.index
610186490.index
265096375.index
2058902361.index
3666306742.index
125955649.index
3478371255.index
2885606711.index
2884726522.index
542153213.index
746888424.index
2137442145.index
730504571.index
520248321.index
3240411859.index
2720981119.index
1015036904.index
2894991509.index
3989364212.index
3408154359.index
3040837599.index
1961815414.index
2227277809.index
1910702182.index
4022787785.index
315709624.index
2832015255.index
3644761064.index
2160792762.index
1960683664.index
2507423472.index
1306113250.index
3753500648.index
3164384212.index
1680318776.index
813003991.index
1065579752.index
1625455577.index
1899953381.index
4009391254.index
1972857142.index
3320511973.index
2066830214.index
1680788847.index
2205283528.index
3975193034.index
1064149151.index
983927642.index
2544073728.index
3210854051.index
1363063056.index
1487011912.index
4160751709.index
1698329503.index
3373575756.index
2289591120.index
3348520720.index
1956904976.index
826355274.index
1946725198.index
2283077158.index
3600471263.index
1337056558.index
1992841768.index
613266609.index
3048247827.index
3319726154.index
3373208680.index
1893911355.index
901618419.index
1272990989.index
2377610318.index
3602769609.index
646915623.index
1803034502.index
885752094.index
2115549793.index
4019421141.index
4259073463.index
4286989732.index
1624080729.index
328790701.index
475658156.index
3605772694.index
3585638832.index
1008906578.index
2757599918.index
3225567541.index
1753082784.index
103378668.index
2782098400.index
2938469003.index
2128723841.index
36841752.index
907479176.index
4138326577.index
4135958314.index
